president_ask
…
#  ( ( ) )
speeches<-speeches %>% 
  unnest_tokens(input=content,
                output = word,
                token=extractNoun)

#   
frequency<-speeches %>% 
  count(President, word) %>% 
  filter(str_count(word)>1)

frequency

## # A tibble: 1,653 x 3
##    President word       n
##    <chr>     <chr>  <int>
##  1            1
##  2            1
##  3            1
##  4            1
##  5            1
##  6            1
##  7          1
##  8            4
##  9            2
## 10            1
## # ... with 1,643 more rows
…
#    (   )
frequency<-speeches %>% 
  count(President, word) %>% 
  filter(str_count(word)>1)

# tf-idf 
frequency<-frequency %>% 
  bind_tf_idf(term=word,
              document=President,
              n=n) %>% 
  arrange(-tf_idf)

frequency

## # A tibble: 1,653 x 6
##    President word         n      tf   idf  tf_idf
##    <chr>     <chr>    <int>   <dbl> <dbl>   <dbl>
##  1             21 0.0279  0.693 0.0193 
##  2           18 0.0231  0.693 0.0160 
##  3          8 0.0106  1.39  0.0147 
##  4              6 0.00770 1.39  0.0107 
##  5              3 0.00723 1.39  0.0100 
##  6            3 0.00723 1.39  0.0100 
##  7              6 0.0145  0.693 0.0100 
##  8            8 0.00668 1.39  0.00927
##  9            5 0.00663 1.39  0.00919
## 10          5 0.00663 1.39  0.00919
## # ... with 1,643 more rows

#    
frequency %>% filter(President=="")

## # A tibble: 428 x 6
##    President word         n      tf   idf  tf_idf
##    <chr>     <chr>    <int>   <dbl> <dbl>   <dbl>
##  1           18 0.0231  0.693 0.0160 
##  2              6 0.00770 1.39  0.0107 
##  3              3 0.00385 1.39  0.00534
##  4          3 0.00385 1.39  0.00534
##  5              3 0.00385 1.39  0.00534
##  6              3 0.00385 1.39  0.00534
##  7             13 0.0167  0.288 0.00480
##  8              5 0.00642 0.693 0.00445
##  9             12 0.0154  0.288 0.00443
## 10              2 0.00257 1.39  0.00356
## # ... with 418 more rows

#    
frequency %>% filter(President=="")

## # A tibble: 638 x 6
##    President word       n      tf   idf  tf_idf
##    <chr>     <chr>  <int>   <dbl> <dbl>   <dbl>
##  1          8 0.00668 1.39  0.00927
##  2            6 0.00501 1.39  0.00695
##  3            5 0.00418 1.39  0.00579
##  4            5 0.00418 1.39  0.00579
##  5          5 0.00418 1.39  0.00579
##  6            5 0.00418 1.39  0.00579
##  7            9 0.00752 0.693 0.00521
##  8           20 0.0167  0.288 0.00481
##  9            4 0.00334 1.39  0.00463
## 10            4 0.00334 1.39  0.00463
## # ... with 628 more rows

#    
frequency %>% filter(President=="")

## # A tibble: 348 x 6
##    President word         n      tf   idf  tf_idf
##    <chr>     <chr>    <int>   <dbl> <dbl>   <dbl>
##  1             21 0.0279  0.693 0.0193 
##  2          8 0.0106  1.39  0.0147 
##  3            5 0.00663 1.39  0.00919
##  4          5 0.00663 1.39  0.00919
##  5             10 0.0133  0.693 0.00919
##  6              4 0.00531 1.39  0.00735
##  7              4 0.00531 1.39  0.00735
##  8              3 0.00398 1.39  0.00552
##  9          3 0.00398 1.39  0.00552
## 10              5 0.00663 0.693 0.00460
## # ... with 338 more rows

#    
frequency %>% filter(President=="")

## # A tibble: 239 x 6
##    President word         n      tf   idf  tf_idf
##    <chr>     <chr>    <int>   <dbl> <dbl>   <dbl>
##  1              3 0.00723 1.39  0.0100 
##  2            3 0.00723 1.39  0.0100 
##  3              6 0.0145  0.693 0.0100 
##  4          5 0.0120  0.693 0.00835
##  5              5 0.0120  0.693 0.00835
##  6            2 0.00482 1.39  0.00668
##  7              2 0.00482 1.39  0.00668
##  8          2 0.00482 1.39  0.00668
##  9              2 0.00482 1.39  0.00668
## 10              2 0.00482 1.39  0.00668
## # ... with 229 more rows
…
(3) 4           (weighted log odds ratio)    10     

  (1) tf-idf  . (10)

, , (woard), (n), tf, idf, tf-idf  .

#   
frequency_lo<- frequency %>% 
  bind_log_odds(set = President, feature = word, n = n) %>%
  arrange(desc(log_odds_weighted))

frequency_lo

## # A tibble: 1,653 x 7
##    President word         n      tf   idf  tf_idf log_odds_weighted
##    <chr>     <chr>    <int>   <dbl> <dbl>   <dbl>             <dbl>
##  1           28 0.0675  0     0                    5.21
##  2             21 0.0279  0.693 0.0193               5.01
##  3           18 0.0231  0.693 0.0160               4.49
##  4             24 0.0578  0     0                    4.38
##  5          8 0.0106  1.39  0.0147               3.97
##  6              6 0.0145  0.693 0.0100               3.77
##  7          5 0.0120  0.693 0.00835              3.44
##  8              5 0.0120  0.693 0.00835              3.44
##  9              6 0.00770 1.39  0.0107               3.37
## 10             10 0.0133  0.693 0.00919              3.33
## # ... with 1,643 more rows

#     (   )
frequency_lo %>% filter(President=="")

## # A tibble: 428 x 7
##    President word         n      tf   idf  tf_idf log_odds_weighted
##    <chr>     <chr>    <int>   <dbl> <dbl>   <dbl>             <dbl>
##  1           18 0.0231  0.693 0.0160               4.49
##  2              6 0.00770 1.39  0.0107               3.37
##  3              3 0.00385 1.39  0.00534              2.38
##  4          3 0.00385 1.39  0.00534              2.38
##  5              3 0.00385 1.39  0.00534              2.38
##  6              3 0.00385 1.39  0.00534              2.38
##  7              5 0.00642 0.693 0.00445              2.25
##  8              4 0.00513 0.693 0.00356              2.04
##  9              4 0.00513 0.693 0.00356              2.04
## 10              4 0.00513 0.693 0.00356              2.04
## # ... with 418 more rows

#     (   )
frequency_lo %>% filter(President=="")

## # A tibble: 638 x 7
##    President word       n      tf   idf  tf_idf log_odds_weighted
##    <chr>     <chr>  <int>   <dbl> <dbl>   <dbl>             <dbl>
##  1          8 0.00668  1.39 0.00927              3.10
##  2            6 0.00501  1.39 0.00695              2.69
##  3            5 0.00418  1.39 0.00579              2.45
##  4            5 0.00418  1.39 0.00579              2.45
##  5          5 0.00418  1.39 0.00579              2.45
##  6            5 0.00418  1.39 0.00579              2.45
##  7            4 0.00334  1.39 0.00463              2.19
##  8            4 0.00334  1.39 0.00463              2.19
##  9            4 0.00334  1.39 0.00463              2.19
## 10            4 0.00334  1.39 0.00463              2.19
## # ... with 628 more rows

#     (   )
frequency_lo %>% filter(President=="")

## # A tibble: 348 x 7
##    President word         n      tf   idf  tf_idf log_odds_weighted
##    <chr>     <chr>    <int>   <dbl> <dbl>   <dbl>             <dbl>
##  1             21 0.0279  0.693 0.0193               5.01
##  2          8 0.0106  1.39  0.0147               3.97
##  3             10 0.0133  0.693 0.00919              3.33
##  4            5 0.00663 1.39  0.00919              3.13
##  5          5 0.00663 1.39  0.00919              3.13
##  6              4 0.00531 1.39  0.00735              2.80
##  7              4 0.00531 1.39  0.00735              2.80
##  8              3 0.00398 1.39  0.00552              2.43
##  9          3 0.00398 1.39  0.00552              2.43
## 10              5 0.00663 0.693 0.00460              2.38
## # ... with 338 more rows

#     (   )
frequency_lo %>% filter(President=="")

## # A tibble: 239 x 7
##    President word         n      tf   idf  tf_idf log_odds_weighted
##    <chr>     <chr>    <int>   <dbl> <dbl>   <dbl>             <dbl>
##  1           28 0.0675  0     0                    5.21
##  2             24 0.0578  0     0                    4.38
##  3              6 0.0145  0.693 0.0100               3.77
##  4          5 0.0120  0.693 0.00835              3.44
##  5              5 0.0120  0.693 0.00835              3.44
##  6              3 0.00723 1.39  0.0100               3.13
##  7            3 0.00723 1.39  0.0100               3.13
##  8              4 0.00964 0.693 0.00668              3.07
##  9              6 0.0145  0.288 0.00416              2.99
## 10            1 0.00241 0.693 0.00167              2.93
## # ... with 229 more rows
…
frequency_wide

## # A tibble: 1,170 x 7
##    word       ratio_noe ratio_lee    rr log_rr
##    <chr>     <int>  <int>     <dbl>     <dbl> <dbl>  <dbl>
##  1        18      0   0.00975  0.000422 23.1    3.14
##  2           6      0   0.00359  0.000422  8.50   2.14
##  3        12      1   0.00667  0.000845  7.89   2.07
##  4           5      0   0.00308  0.000422  7.29   1.99
##  5           4      0   0.00257  0.000422  6.07   1.80
##  6           4      0   0.00257  0.000422  6.07   1.80
##  7           3      0   0.00205  0.000422  4.86   1.58
##  8           3      0   0.00205  0.000422  4.86   1.58
##  9           3      0   0.00205  0.000422  4.86   1.58
## 10       3      0   0.00205  0.000422  4.86   1.58
## # ... with 1,160 more rows

#       
frequency_wide %>% 
  arrange(log_rr)

## # A tibble: 1,170 x 7
##    word       ratio_noe ratio_lee    rr log_rr
##    <chr>     <int>  <int>     <dbl>     <dbl> <dbl>  <dbl>
##  1         0      8  0.000513   0.00380 0.135  -2.00
##  2         0      6  0.000513   0.00296 0.173  -1.75
##  3           0      6  0.000513   0.00296 0.173  -1.75
##  4           0      6  0.000513   0.00296 0.173  -1.75
##  5       2     17  0.00154    0.00760 0.202  -1.60
##  6           0      5  0.000513   0.00253 0.202  -1.60
##  7           0      5  0.000513   0.00253 0.202  -1.60
##  8           0      5  0.000513   0.00253 0.202  -1.60
##  9         0      5  0.000513   0.00253 0.202  -1.60
## 10           0      5  0.000513   0.00253 0.202  -1.60
## # ... with 1,160 more rows
…
